Simulate by Design • faux
…
You can access an individual data frame using df$data[[1]] or run the same function on each data frame using a pattern like below:

# using tidyverse functions
analyse <- function(data) {
  stats::aov(y ~ B1 * W1 + Error(id/W1), data = data) %>% 
    broom::tidy()
}

df %>%
  dplyr::mutate(analysis = lapply(data, analyse)) %>%
  dplyr::select(-data) %>%
  tidyr::unnest(analysis)
#> # A tibble: 25 x 8
#>      rep stratum term         df   sumsq meansq statistic  p.value
#>    <int> <chr>   <chr>     <dbl>   <dbl>  <dbl>     <dbl>    <dbl>
#>  1     1 id      B1            1  11.9   11.9       8.52   0.00436
#>  2     1 id      Residuals    98 137.     1.40     NA     NA      
#>  3     1 id:W1   W1            1   0.550  0.550     1.01   0.316  
#>  4     1 id:W1   B1:W1         1   0.464  0.464     0.855  0.357  
#>  5     1 id:W1   Residuals    98  53.2    0.542    NA     NA      
#>  6     2 id      B1            1  12.4   12.4       8.03   0.00558
#>  7     2 id      Residuals    98 151.     1.54     NA     NA      
#>  8     2 id:W1   W1            1   1.39   1.39      3.18   0.0776 
#>  9     2 id:W1   B1:W1         1   0.266  0.266     0.611  0.436  
#> 10     2 id:W1   Residuals    98  42.8    0.436    NA     NA      
#> # … with 15 more rows
…
