Simulate by Design • faux
…
You can access an individual data frame using df$data[[1]] or run the same function on each data frame using a pattern like below:

# using tidyverse functions
analyse <- function(data) {
  stats::aov(y ~ B * A + Error(id/A), data = data) %>% 
    broom::tidy()
}

df %>%
  dplyr::mutate(analysis = lapply(data, analyse)) %>%
  dplyr::select(-data) %>%
  tidyr::unnest(analysis)
#> # A tibble: 25 x 8
#>      rep stratum term         df    sumsq meansq statistic   p.value
#>    <int> <chr>   <chr>     <dbl>    <dbl>  <dbl>     <dbl>     <dbl>
#>  1     1 id      B             1   0.0778 0.0778    0.0552  0.815   
#>  2     1 id      Residuals    98 138.     1.41     NA      NA       
#>  3     1 id:A    A             1   1.25   1.25      2.46    0.120   
#>  4     1 id:A    B:A           1   6.70   6.70     13.2     0.000444
#>  5     1 id:A    Residuals    98  49.7    0.507    NA      NA       
#>  6     2 id      B             1   0.145  0.145     0.119   0.731   
#>  7     2 id      Residuals    98 120.     1.22     NA      NA       
#>  8     2 id:A    A             1   6.22   6.22     12.6     0.000606
#>  9     2 id:A    B:A           1   4.60   4.60      9.29    0.00297 
#> 10     2 id:A    Residuals    98  48.5    0.495    NA      NA       
#> # … with 15 more rows
…
